{
    "network": {
        "nodes": [
            {
                "id": 0,
                "cpu": 1000,
                "storage": 1000
            },
            {
                "id": 1,
                "cpu": 1000,
                "storage": 1000
            },
            {
                "id": 2,
                "cpu": 1000,
                "storage": 1000
            },
            {
                "id": 3,
                "cpu": 1000,
                "storage": 1000
            },
            {
                "id": 4,
                "cpu": 1000,
                "storage": 1000
            },
            {
                "id": 5,
                "cpu": 1000,
                "storage": 1000
            },
            {
                "id": 6,
                "cpu": 1000,
                "storage": 1000
            },
            {
                "id": 7,
                "cpu": 1000,
                "storage": 1000
            },
            {
                "id": 8,
                "cpu": 1000,
                "storage": 1000
            },
            {
                "id": 9,
                "cpu": 1000,
                "storage": 1000
            },
            {
                "id": 10,
                "cpu": 1000,
                "storage": 1000
            },
            {
                "id": 11,
                "cpu": 1000,
                "storage": 1000
            },
            {
                "id": 12,
                "cpu": 1000,
                "storage": 1000
            },
            {
                "id": 13,
                "cpu": 1000,
                "storage": 1000
            },
            {
                "id": 14,
                "cpu": 1000,
                "storage": 1000
            },
            {
                "id": 15,
                "cpu": 1000,
                "storage": 1000
            },
            {
                "id": 16,
                "cpu": 1000,
                "storage": 1000
            },
            {
                "id": 17,
                "cpu": 1000,
                "storage": 1000
            },
            {
                "id": 18,
                "cpu": 1000,
                "storage": 1000
            },
            {
                "id": 19,
                "cpu": 1000,
                "storage": 1000
            },
            {
                "id": 20,
                "cpu": 1000,
                "storage": 1000
            },
            {
                "id": 21,
                "cpu": 1000,
                "storage": 1000
            },
            {
                "id": 22,
                "cpu": 1000,
                "storage": 1000
            },
            {
                "id": 23,
                "cpu": 1000,
                "storage": 1000
            }
        ],
        "edges": [
            {
                "dst": 0,
                "src": 2,
                "delay": 1,
                "capacity": 1000
            },
            {
                "dst": 0,
                "src": 4,
                "delay": 1,
                "capacity": 1000
            },
            {
                "dst": 0,
                "src": 5,
                "delay": 1,
                "capacity": 1000
            },
            {
                "dst": 0,
                "src": 7,
                "delay": 1,
                "capacity": 1000
            },
            {
                "dst": 1,
                "src": 8,
                "delay": 1,
                "capacity": 1000
            },
            {
                "dst": 1,
                "src": 22,
                "delay": 1,
                "capacity": 1000
            },
            {
                "dst": 1,
                "src": 4,
                "delay": 1,
                "capacity": 1000
            },
            {
                "dst": 1,
                "src": 5,
                "delay": 1,
                "capacity": 1000
            },
            {
                "dst": 1,
                "src": 6,
                "delay": 1,
                "capacity": 1000
            },
            {
                "dst": 2,
                "src": 10,
                "delay": 1,
                "capacity": 1000
            },
            {
                "dst": 2,
                "src": 3,
                "delay": 1,
                "capacity": 1000
            },
            {
                "dst": 3,
                "src": 10,
                "delay": 1,
                "capacity": 1000
            },
            {
                "dst": 5,
                "src": 12,
                "delay": 1,
                "capacity": 1000
            },
            {
                "dst": 5,
                "src": 8,
                "delay": 1,
                "capacity": 1000
            },
            {
                "dst": 6,
                "src": 7,
                "delay": 1,
                "capacity": 1000
            },
            {
                "dst": 8,
                "src": 9,
                "delay": 1,
                "capacity": 1000
            },
            {
                "dst": 9,
                "src": 12,
                "delay": 1,
                "capacity": 1000
            },
            {
                "dst": 10,
                "src": 20,
                "delay": 1,
                "capacity": 1000
            },
            {
                "dst": 10,
                "src": 13,
                "delay": 1,
                "capacity": 1000
            },
            {
                "dst": 10,
                "src": 14,
                "delay": 1,
                "capacity": 1000
            },
            {
                "dst": 11,
                "src": 13,
                "delay": 1,
                "capacity": 1000
            },
            {
                "dst": 11,
                "src": 22,
                "delay": 1,
                "capacity": 1000
            },
            {
                "dst": 11,
                "src": 21,
                "delay": 1,
                "capacity": 1000
            },
            {
                "dst": 13,
                "src": 14,
                "delay": 1,
                "capacity": 1000
            },
            {
                "dst": 15,
                "src": 16,
                "delay": 1,
                "capacity": 1000
            },
            {
                "dst": 15,
                "src": 22,
                "delay": 1,
                "capacity": 1000
            },
            {
                "dst": 16,
                "src": 18,
                "delay": 1,
                "capacity": 1000
            },
            {
                "dst": 17,
                "src": 18,
                "delay": 1,
                "capacity": 1000
            },
            {
                "dst": 18,
                "src": 19,
                "delay": 1,
                "capacity": 1000
            },
            {
                "dst": 18,
                "src": 21,
                "delay": 1,
                "capacity": 1000
            },
            {
                "dst": 19,
                "src": 20,
                "delay": 1,
                "capacity": 1000
            },
            {
                "src": 0,
                "dst": 2,
                "delay": 1,
                "capacity": 1000
            },
            {
                "src": 0,
                "dst": 4,
                "delay": 1,
                "capacity": 1000
            },
            {
                "src": 0,
                "dst": 5,
                "delay": 1,
                "capacity": 1000
            },
            {
                "src": 0,
                "dst": 7,
                "delay": 1,
                "capacity": 1000
            },
            {
                "src": 1,
                "dst": 8,
                "delay": 1,
                "capacity": 1000
            },
            {
                "src": 1,
                "dst": 22,
                "delay": 1,
                "capacity": 1000
            },
            {
                "src": 1,
                "dst": 4,
                "delay": 1,
                "capacity": 1000
            },
            {
                "src": 1,
                "dst": 5,
                "delay": 1,
                "capacity": 1000
            },
            {
                "src": 1,
                "dst": 6,
                "delay": 1,
                "capacity": 1000
            },
            {
                "src": 2,
                "dst": 10,
                "delay": 1,
                "capacity": 1000
            },
            {
                "src": 2,
                "dst": 3,
                "delay": 1,
                "capacity": 1000
            },
            {
                "src": 3,
                "dst": 10,
                "delay": 1,
                "capacity": 1000
            },
            {
                "src": 5,
                "dst": 12,
                "delay": 1,
                "capacity": 1000
            },
            {
                "src": 5,
                "dst": 8,
                "delay": 1,
                "capacity": 1000
            },
            {
                "src": 6,
                "dst": 7,
                "delay": 1,
                "capacity": 1000
            },
            {
                "src": 8,
                "dst": 9,
                "delay": 1,
                "capacity": 1000
            },
            {
                "src": 9,
                "dst": 12,
                "delay": 1,
                "capacity": 1000
            },
            {
                "src": 10,
                "dst": 20,
                "delay": 1,
                "capacity": 1000
            },
            {
                "src": 10,
                "dst": 13,
                "delay": 1,
                "capacity": 1000
            },
            {
                "src": 10,
                "dst": 14,
                "delay": 1,
                "capacity": 1000
            },
            {
                "src": 11,
                "dst": 13,
                "delay": 1,
                "capacity": 1000
            },
            {
                "src": 11,
                "dst": 22,
                "delay": 1,
                "capacity": 1000
            },
            {
                "src": 11,
                "dst": 21,
                "delay": 1,
                "capacity": 1000
            },
            {
                "src": 13,
                "dst": 14,
                "delay": 1,
                "capacity": 1000
            },
            {
                "src": 15,
                "dst": 16,
                "delay": 1,
                "capacity": 1000
            },
            {
                "src": 15,
                "dst": 22,
                "delay": 1,
                "capacity": 1000
            },
            {
                "src": 16,
                "dst": 18,
                "delay": 1,
                "capacity": 1000
            },
            {
                "src": 17,
                "dst": 18,
                "delay": 1,
                "capacity": 1000
            },
            {
                "src": 18,
                "dst": 19,
                "delay": 1,
                "capacity": 1000
            },
            {
                "src": 18,
                "dst": 21,
                "delay": 1,
                "capacity": 1000
            },
            {
                "src": 19,
                "dst": 20,
                "delay": 1,
                "capacity": 1000
            }
        ]
    },
    "services": [
        {
            "nbRequested": 200,
            "edgeList": [
                [
                    0,
                    1
                ],
                [
                    1,
                    2
                ],
                [
                    2,
                    3
                ],
                [
                    1,
                    0
                ],
                [
                    2,
                    1
                ],
                [
                    3,
                    2
                ]
            ],
            "order": 4,
            "cpuRequirements": [
                0,
                1,
                1,
                1
            ],
            "storageRequirements": [
                0,
                1,
                1,
                1
            ],
            "bandwidthRequirements": [
                1,
                1,
                1,
                1,
                1,
                1
            ],
            "delayRequirements": [
                1e9,
                1e9,
                1e9,
                1e9,
                1e9,
                1e9
            ],
            "serviceDelay": 10,
            "fixedLocations": [
                [
                    12
                ],
                [],
                [],
                []
            ]
        }
    ]
}
